{
  "ModelConfig": {
    "PlanetsProbabilityPercents": 30,
    "MaxPlanetRating": 10000,
    "TopPlanetsCount": 20,
    "RegionBitSize": 7,
    "StartFrame": {
      "MinX": 0,
      "MinY": 0,
      "MaxX": 1000,
      "MaxY": 1000
    }
  },
  "MinScale": 2,
  "ChangeModeScale": 5,
  "MaxScale": 5000
}